%!PS-Adobe-3.0 EPSF-3.0
%%Creator: cairo 1.15.12 (http://cairographics.org)
%%CreationDate: Sun Aug  5 02:31:21 2018
%%Pages: 1
%%DocumentData: Clean7Bit
%%LanguageLevel: 2
%%BoundingBox: 0 0 35 52
%%EndComments
%%BeginProlog
50 dict begin
/q { gsave } bind def
/Q { grestore } bind def
/cm { 6 array astore concat } bind def
/w { setlinewidth } bind def
/J { setlinecap } bind def
/j { setlinejoin } bind def
/M { setmiterlimit } bind def
/d { setdash } bind def
/m { moveto } bind def
/l { lineto } bind def
/c { curveto } bind def
/h { closepath } bind def
/re { exch dup neg 3 1 roll 5 3 roll moveto 0 rlineto
      0 exch rlineto 0 rlineto closepath } bind def
/S { stroke } bind def
/f { fill } bind def
/f* { eofill } bind def
/n { newpath } bind def
/W { clip } bind def
/W* { eoclip } bind def
/BT { } bind def
/ET { } bind def
/BDC { mark 3 1 roll /BDC pdfmark } bind def
/EMC { mark /EMC pdfmark } bind def
/cairo_store_point { /cairo_point_y exch def /cairo_point_x exch def } def
/Tj { show currentpoint cairo_store_point } bind def
/TJ {
  {
    dup
    type /stringtype eq
    { show } { -0.001 mul 0 cairo_font_matrix dtransform rmoveto } ifelse
  } forall
  currentpoint cairo_store_point
} bind def
/cairo_selectfont { cairo_font_matrix aload pop pop pop 0 0 6 array astore
    cairo_font exch selectfont cairo_point_x cairo_point_y moveto } bind def
/Tf { pop /cairo_font exch def /cairo_font_matrix where
      { pop cairo_selectfont } if } bind def
/Td { matrix translate cairo_font_matrix matrix concatmatrix dup
      /cairo_font_matrix exch def dup 4 get exch 5 get cairo_store_point
      /cairo_font where { pop cairo_selectfont } if } bind def
/Tm { 2 copy 8 2 roll 6 array astore /cairo_font_matrix exch def
      cairo_store_point /cairo_font where { pop cairo_selectfont } if } bind def
/g { setgray } bind def
/rg { setrgbcolor } bind def
/d1 { setcachedevice } bind def
/cairo_data_source {
  CairoDataIndex CairoData length lt
    { CairoData CairoDataIndex get /CairoDataIndex CairoDataIndex 1 add def }
    { () } ifelse
} def
/cairo_flush_ascii85_file { cairo_ascii85_file status { cairo_ascii85_file flushfile } if } def
/cairo_image { image cairo_flush_ascii85_file } def
/cairo_imagemask { imagemask cairo_flush_ascii85_file } def
%%EndProlog
%%BeginSetup
%%EndSetup
%%Page: 1 1
%%BeginPageSetup
%%PageBoundingBox: 0 0 35 52
%%EndPageSetup
q 0 0 35 52 rectclip
1 0 0 -1 0 52 cm q
0 g
33.062 0 m 4.664 0 l 4.664 0 4.664 0 4.66 0 c 4.66 0 4.656 0 4.652 0 c 
2.086 0 0 2.086 0 4.656 c 0 38.898 l 0 41.465 2.086 43.551 4.652 43.555 
c 6.211 43.555 l 6.211 50.098 l 6.211 50.562 6.496 50.98 6.93 51.152 c 7.363
 51.324 7.855 51.211 8.172 50.871 c 10.184 48.727 l 12.191 50.871 l 12.41
 51.105 12.711 51.23 13.02 51.23 c 13.16 51.23 13.301 51.207 13.438 51.152
 c 13.871 50.98 14.156 50.562 14.156 50.098 c 14.156 43.555 l 33.062 43.555
 l 33.688 43.555 34.195 43.047 34.195 42.422 c 34.195 1.133 l 34.195 0.508
 33.688 0 33.062 0 c h
5.789 2.27 m 31.926 2.27 l 31.926 34.246 l 5.789 34.246 l h
3.52 2.555 m 3.52 34.391 l 3.074 34.5 2.652 34.68 2.27 34.91 c 2.27 4.656
 l 2.27 3.75 2.773 2.961 3.52 2.555 c h
11.887 47.227 m 11.012 46.293 l 10.797 46.062 10.496 45.934 10.184 45.934
 c 9.867 45.934 9.57 46.062 9.355 46.293 c 8.48 47.227 l 8.48 40.035 l 11.887
 40.035 l h
13.02 37.766 m 12.945 37.766 12.871 37.773 12.801 37.789 c 12.73 37.773
 12.656 37.766 12.582 37.766 c 7.348 37.766 l 6.723 37.766 6.211 38.273 
6.211 38.898 c 6.211 41.285 l 4.656 41.285 l 4.656 41.285 4.656 41.285 4.652
 41.285 c 3.34 41.285 2.266 40.215 2.266 38.898 c 2.266 37.582 3.34 36.512
 4.652 36.512 c 31.926 36.512 l 31.926 41.285 l 14.156 41.285 l 14.156 38.898
 l 14.156 38.273 13.648 37.766 13.02 37.766 c h
13.02 37.766 m f
25.156 7.039 m 12.582 7.039 l 11.953 7.039 11.445 7.551 11.445 8.176 c 
11.445 14.68 l 11.445 15.305 11.953 15.812 12.582 15.812 c 25.156 15.812
 l 25.781 15.812 26.289 15.305 26.289 14.68 c 26.289 8.176 l 26.289 7.551
 25.781 7.039 25.156 7.039 c h
24.02 13.543 m 13.715 13.543 l 13.715 9.309 l 24.02 9.309 l h
24.02 13.543 m f
Q Q
showpage
%%Trailer
end
%%EOF
