%!PS-Adobe-3.0 EPSF-3.0
%%Creator: cairo 1.15.12 (http://cairographics.org)
%%CreationDate: Sun Aug  5 03:19:37 2018
%%Pages: 1
%%DocumentData: Clean7Bit
%%LanguageLevel: 2
%%BoundingBox: 0 0 54 42
%%EndComments
%%BeginProlog
50 dict begin
/q { gsave } bind def
/Q { grestore } bind def
/cm { 6 array astore concat } bind def
/w { setlinewidth } bind def
/J { setlinecap } bind def
/j { setlinejoin } bind def
/M { setmiterlimit } bind def
/d { setdash } bind def
/m { moveto } bind def
/l { lineto } bind def
/c { curveto } bind def
/h { closepath } bind def
/re { exch dup neg 3 1 roll 5 3 roll moveto 0 rlineto
      0 exch rlineto 0 rlineto closepath } bind def
/S { stroke } bind def
/f { fill } bind def
/f* { eofill } bind def
/n { newpath } bind def
/W { clip } bind def
/W* { eoclip } bind def
/BT { } bind def
/ET { } bind def
/BDC { mark 3 1 roll /BDC pdfmark } bind def
/EMC { mark /EMC pdfmark } bind def
/cairo_store_point { /cairo_point_y exch def /cairo_point_x exch def } def
/Tj { show currentpoint cairo_store_point } bind def
/TJ {
  {
    dup
    type /stringtype eq
    { show } { -0.001 mul 0 cairo_font_matrix dtransform rmoveto } ifelse
  } forall
  currentpoint cairo_store_point
} bind def
/cairo_selectfont { cairo_font_matrix aload pop pop pop 0 0 6 array astore
    cairo_font exch selectfont cairo_point_x cairo_point_y moveto } bind def
/Tf { pop /cairo_font exch def /cairo_font_matrix where
      { pop cairo_selectfont } if } bind def
/Td { matrix translate cairo_font_matrix matrix concatmatrix dup
      /cairo_font_matrix exch def dup 4 get exch 5 get cairo_store_point
      /cairo_font where { pop cairo_selectfont } if } bind def
/Tm { 2 copy 8 2 roll 6 array astore /cairo_font_matrix exch def
      cairo_store_point /cairo_font where { pop cairo_selectfont } if } bind def
/g { setgray } bind def
/rg { setrgbcolor } bind def
/d1 { setcachedevice } bind def
/cairo_data_source {
  CairoDataIndex CairoData length lt
    { CairoData CairoDataIndex get /CairoDataIndex CairoDataIndex 1 add def }
    { () } ifelse
} def
/cairo_flush_ascii85_file { cairo_ascii85_file status { cairo_ascii85_file flushfile } if } def
/cairo_image { image cairo_flush_ascii85_file } def
/cairo_imagemask { imagemask cairo_flush_ascii85_file } def
%%EndProlog
%%BeginSetup
%%EndSetup
%%Page: 1 1
%%BeginPageSetup
%%PageBoundingBox: 0 0 54 42
%%EndPageSetup
q 0 0 54 42 rectclip
1 0 0 -1 0 42 cm q
0 g
35.801 0 m 35.105 0 34.406 0.422 34.133 1.074 c 16.242 39.078 l 15.801 
39.945 16.223 41.105 17.086 41.504 c 17.953 41.906 19.113 41.461 19.473 
40.598 c 37.363 2.574 l 37.617 2.047 37.598 1.371 37.277 0.863 c 36.984 
0.359 36.391 0.02 35.801 0 c h
13.582 5.969 m 13.117 6.012 12.672 6.223 12.355 6.559 c 0.445 19.633 l 
-0.148 20.289 -0.148 21.383 0.445 22.02 c 12.355 35.094 l 12.988 35.832 
14.234 35.914 14.934 35.281 c 15.652 34.629 15.695 33.387 15.02 32.711 c
 4.184 20.836 l 15.02 8.961 l 15.504 8.434 15.609 7.613 15.312 6.98 c 14.996
 6.348 14.277 5.926 13.582 5.969 c h
39.812 5.969 m 39.137 6.012 38.504 6.453 38.25 7.086 c 37.996 7.695 38.145
 8.457 38.59 8.961 c 49.426 20.836 l 38.59 32.711 l 37.914 33.383 37.953
 34.629 38.672 35.281 c 39.371 35.914 40.617 35.832 41.25 35.094 c 53.164
 22.02 l 53.754 21.383 53.754 20.289 53.164 19.633 c 41.25 6.559 l 40.891
 6.16 40.34 5.949 39.812 5.969 c h
39.812 5.969 m f
Q Q
showpage
%%Trailer
end
%%EOF
