%!PS-Adobe-3.0 EPSF-3.0
%%Creator: cairo 1.15.12 (http://cairographics.org)
%%CreationDate: Sun Jul 22 02:37:08 2018
%%Pages: 1
%%DocumentData: Clean7Bit
%%LanguageLevel: 2
%%BoundingBox: 0 0 35 44
%%EndComments
%%BeginProlog
50 dict begin
/q { gsave } bind def
/Q { grestore } bind def
/cm { 6 array astore concat } bind def
/w { setlinewidth } bind def
/J { setlinecap } bind def
/j { setlinejoin } bind def
/M { setmiterlimit } bind def
/d { setdash } bind def
/m { moveto } bind def
/l { lineto } bind def
/c { curveto } bind def
/h { closepath } bind def
/re { exch dup neg 3 1 roll 5 3 roll moveto 0 rlineto
      0 exch rlineto 0 rlineto closepath } bind def
/S { stroke } bind def
/f { fill } bind def
/f* { eofill } bind def
/n { newpath } bind def
/W { clip } bind def
/W* { eoclip } bind def
/BT { } bind def
/ET { } bind def
/BDC { mark 3 1 roll /BDC pdfmark } bind def
/EMC { mark /EMC pdfmark } bind def
/cairo_store_point { /cairo_point_y exch def /cairo_point_x exch def } def
/Tj { show currentpoint cairo_store_point } bind def
/TJ {
  {
    dup
    type /stringtype eq
    { show } { -0.001 mul 0 cairo_font_matrix dtransform rmoveto } ifelse
  } forall
  currentpoint cairo_store_point
} bind def
/cairo_selectfont { cairo_font_matrix aload pop pop pop 0 0 6 array astore
    cairo_font exch selectfont cairo_point_x cairo_point_y moveto } bind def
/Tf { pop /cairo_font exch def /cairo_font_matrix where
      { pop cairo_selectfont } if } bind def
/Td { matrix translate cairo_font_matrix matrix concatmatrix dup
      /cairo_font_matrix exch def dup 4 get exch 5 get cairo_store_point
      /cairo_font where { pop cairo_selectfont } if } bind def
/Tm { 2 copy 8 2 roll 6 array astore /cairo_font_matrix exch def
      cairo_store_point /cairo_font where { pop cairo_selectfont } if } bind def
/g { setgray } bind def
/rg { setrgbcolor } bind def
/d1 { setcachedevice } bind def
/cairo_data_source {
  CairoDataIndex CairoData length lt
    { CairoData CairoDataIndex get /CairoDataIndex CairoDataIndex 1 add def }
    { () } ifelse
} def
/cairo_flush_ascii85_file { cairo_ascii85_file status { cairo_ascii85_file flushfile } if } def
/cairo_image { image cairo_flush_ascii85_file } def
/cairo_imagemask { imagemask cairo_flush_ascii85_file } def
%%EndProlog
%%BeginSetup
%%EndSetup
%%Page: 1 1
%%BeginPageSetup
%%PageBoundingBox: 0 0 35 44
%%EndPageSetup
q 0 0 35 44 rectclip
1 0 0 -1 0 44 cm q
0 g
33.062 0 m 4.652 0 l 2.086 0 0 2.086 0 4.656 c 0 38.898 l 0 41.465 2.027
 43.555 4.652 43.555 c 18.559 43.555 24.082 43.777 33.062 43.555 c 33.688
 43.555 34.195 43.047 34.195 42.422 c 34.195 1.133 l 34.195 0.508 33.688
 0 33.062 0 c h
5.789 2.27 m 31.926 2.27 l 31.926 34.246 l 5.789 34.246 l h
3.52 2.555 m 3.52 34.391 l 3.074 34.5 2.652 34.68 2.27 34.91 c 2.27 4.656
 l 2.27 3.75 2.773 2.961 3.52 2.555 c h
4.656 41.285 m 4.652 41.285 l 3.34 41.285 2.266 40.215 2.266 38.898 c 2.266
 37.582 3.34 36.512 4.652 36.512 c 31.926 36.512 l 31.926 41.285 l 21.078
 41.285 7.82 41.285 4.656 41.285 c h
4.656 41.285 m f
13.051 14.039 m 13.953 14.039 14.641 14.297 15.113 14.855 c 15.371 15.156
 15.586 15.629 15.758 16.23 c 18.383 16.23 l 18.34 15.457 18.039 14.684 
17.523 13.91 c 16.578 12.535 15.027 11.848 12.922 11.848 c 11.375 11.848
 10.086 12.363 9.051 13.395 c 7.891 14.598 7.289 16.273 7.289 18.469 c 7.289
 20.488 7.805 22.078 8.836 23.238 c 9.871 24.402 11.246 24.961 13.051 24.961
 c 14.512 24.961 15.672 24.531 16.621 23.668 c 17.523 22.809 18.125 21.691
 18.34 20.316 c 15.715 20.316 l 15.543 20.961 15.328 21.434 15.07 21.777
 c 14.598 22.379 13.91 22.68 13.008 22.68 c 12.148 22.68 11.418 22.336 10.859
 21.648 c 10.301 20.961 10 19.887 10 18.469 c 10 17.047 10.258 15.973 10.816
 15.199 c 11.375 14.383 12.105 14.039 13.051 14.039 c h
13.051 14.039 m f
25.133 17.48 m 22.551 12.02 l 19.457 12.02 l 23.801 19.844 l 23.801 24.574
 l 26.422 24.574 l 26.422 19.844 l 30.637 12.02 l 27.625 12.02 l h
25.133 17.48 m f
Q Q
showpage
%%Trailer
end
%%EOF
