%!PS-Adobe-3.0 EPSF-3.0
%%Creator: cairo 1.15.12 (http://cairographics.org)
%%CreationDate: Sun Jul 22 01:26:23 2018
%%Pages: 1
%%DocumentData: Clean7Bit
%%LanguageLevel: 2
%%BoundingBox: 0 0 68 68
%%EndComments
%%BeginProlog
50 dict begin
/q { gsave } bind def
/Q { grestore } bind def
/cm { 6 array astore concat } bind def
/w { setlinewidth } bind def
/J { setlinecap } bind def
/j { setlinejoin } bind def
/M { setmiterlimit } bind def
/d { setdash } bind def
/m { moveto } bind def
/l { lineto } bind def
/c { curveto } bind def
/h { closepath } bind def
/re { exch dup neg 3 1 roll 5 3 roll moveto 0 rlineto
      0 exch rlineto 0 rlineto closepath } bind def
/S { stroke } bind def
/f { fill } bind def
/f* { eofill } bind def
/n { newpath } bind def
/W { clip } bind def
/W* { eoclip } bind def
/BT { } bind def
/ET { } bind def
/BDC { mark 3 1 roll /BDC pdfmark } bind def
/EMC { mark /EMC pdfmark } bind def
/cairo_store_point { /cairo_point_y exch def /cairo_point_x exch def } def
/Tj { show currentpoint cairo_store_point } bind def
/TJ {
  {
    dup
    type /stringtype eq
    { show } { -0.001 mul 0 cairo_font_matrix dtransform rmoveto } ifelse
  } forall
  currentpoint cairo_store_point
} bind def
/cairo_selectfont { cairo_font_matrix aload pop pop pop 0 0 6 array astore
    cairo_font exch selectfont cairo_point_x cairo_point_y moveto } bind def
/Tf { pop /cairo_font exch def /cairo_font_matrix where
      { pop cairo_selectfont } if } bind def
/Td { matrix translate cairo_font_matrix matrix concatmatrix dup
      /cairo_font_matrix exch def dup 4 get exch 5 get cairo_store_point
      /cairo_font where { pop cairo_selectfont } if } bind def
/Tm { 2 copy 8 2 roll 6 array astore /cairo_font_matrix exch def
      cairo_store_point /cairo_font where { pop cairo_selectfont } if } bind def
/g { setgray } bind def
/rg { setrgbcolor } bind def
/d1 { setcachedevice } bind def
/cairo_data_source {
  CairoDataIndex CairoData length lt
    { CairoData CairoDataIndex get /CairoDataIndex CairoDataIndex 1 add def }
    { () } ifelse
} def
/cairo_flush_ascii85_file { cairo_ascii85_file status { cairo_ascii85_file flushfile } if } def
/cairo_image { image cairo_flush_ascii85_file } def
/cairo_imagemask { imagemask cairo_flush_ascii85_file } def
%%EndProlog
%%BeginSetup
%%EndSetup
%%Page: 1 1
%%BeginPageSetup
%%PageBoundingBox: 0 0 68 68
%%EndPageSetup
q 0 0 68 68 rectclip
1 0 0 -1 0 68 cm q
0 g
59.25 0 m 8.25 0 l 3.676 0 0 3.449 0 7.727 c 0 46.5 l 0 50.773 3.676 54.227
 8.25 54.227 c 13.648 54.227 l 13.648 65.699 l 13.648 66.375 14.102 67.051
 14.773 67.352 c 15.074 67.5 15.301 67.5 15.602 67.5 c 16.051 67.5 16.5 
67.352 16.875 67.125 c 33.898 54.227 l 59.25 54.227 l 63.824 54.227 67.5
 50.773 67.5 46.5 c 67.5 7.727 l 67.5 3.449 63.824 0 59.25 0 c h
63.676 46.426 m 63.676 48.676 61.727 50.477 59.324 50.477 c 33.148 50.477
 l 32.699 50.477 32.25 50.625 31.875 50.852 c 17.551 61.727 l 17.551 52.273
 l 17.551 51.301 16.648 50.477 15.602 50.477 c 8.25 50.477 l 5.852 50.477
 3.898 48.676 3.898 46.426 c 3.898 7.875 l 3.898 5.625 5.852 3.824 8.25 
3.824 c 59.398 3.824 l 61.801 3.824 63.75 5.625 63.75 7.875 c 63.75 46.426
 l h
63.676 46.426 m f
24.148 19.5 m 25.727 19.5 26.926 19.949 27.75 20.926 c 28.199 21.449 28.574
 22.273 28.875 23.324 c 33.449 23.324 l 33.375 21.977 32.852 20.625 31.949
 19.273 c 30.301 16.875 27.602 15.676 23.926 15.676 c 21.227 15.676 18.977
 16.574 17.176 18.375 c 15.148 20.477 14.102 23.398 14.102 27.227 c 14.102
 30.75 15 33.523 16.801 35.551 c 18.602 37.574 21 38.551 24.148 38.551 c
 26.699 38.551 28.727 37.801 30.375 36.301 c 31.949 34.801 33 32.852 33.375
 30.449 c 28.801 30.449 l 28.5 31.574 28.125 32.398 27.676 33 c 26.852 34.051
 25.648 34.574 24.074 34.574 c 22.574 34.574 21.301 33.977 20.324 32.773
 c 19.352 31.574 18.824 29.699 18.824 27.227 c 18.824 24.75 19.273 22.875
 20.25 21.523 c 21.227 20.102 22.5 19.5 24.148 19.5 c h
24.148 19.5 m f
35.324 15.977 m 42.898 29.625 l 42.898 37.875 l 47.477 37.875 l 47.477 
29.625 l 54.824 15.977 l 49.574 15.977 l 45.227 25.5 l 40.727 15.977 l h
35.324 15.977 m f
Q Q
showpage
%%Trailer
end
%%EOF
