%!PS-Adobe-3.0 EPSF-3.0
%%Creator: cairo 1.15.12 (http://cairographics.org)
%%CreationDate: Sun Aug  5 13:17:05 2018
%%Pages: 1
%%DocumentData: Clean7Bit
%%LanguageLevel: 2
%%BoundingBox: 0 1 69 43
%%EndComments
%%BeginProlog
50 dict begin
/q { gsave } bind def
/Q { grestore } bind def
/cm { 6 array astore concat } bind def
/w { setlinewidth } bind def
/J { setlinecap } bind def
/j { setlinejoin } bind def
/M { setmiterlimit } bind def
/d { setdash } bind def
/m { moveto } bind def
/l { lineto } bind def
/c { curveto } bind def
/h { closepath } bind def
/re { exch dup neg 3 1 roll 5 3 roll moveto 0 rlineto
      0 exch rlineto 0 rlineto closepath } bind def
/S { stroke } bind def
/f { fill } bind def
/f* { eofill } bind def
/n { newpath } bind def
/W { clip } bind def
/W* { eoclip } bind def
/BT { } bind def
/ET { } bind def
/BDC { mark 3 1 roll /BDC pdfmark } bind def
/EMC { mark /EMC pdfmark } bind def
/cairo_store_point { /cairo_point_y exch def /cairo_point_x exch def } def
/Tj { show currentpoint cairo_store_point } bind def
/TJ {
  {
    dup
    type /stringtype eq
    { show } { -0.001 mul 0 cairo_font_matrix dtransform rmoveto } ifelse
  } forall
  currentpoint cairo_store_point
} bind def
/cairo_selectfont { cairo_font_matrix aload pop pop pop 0 0 6 array astore
    cairo_font exch selectfont cairo_point_x cairo_point_y moveto } bind def
/Tf { pop /cairo_font exch def /cairo_font_matrix where
      { pop cairo_selectfont } if } bind def
/Td { matrix translate cairo_font_matrix matrix concatmatrix dup
      /cairo_font_matrix exch def dup 4 get exch 5 get cairo_store_point
      /cairo_font where { pop cairo_selectfont } if } bind def
/Tm { 2 copy 8 2 roll 6 array astore /cairo_font_matrix exch def
      cairo_store_point /cairo_font where { pop cairo_selectfont } if } bind def
/g { setgray } bind def
/rg { setrgbcolor } bind def
/d1 { setcachedevice } bind def
/cairo_data_source {
  CairoDataIndex CairoData length lt
    { CairoData CairoDataIndex get /CairoDataIndex CairoDataIndex 1 add def }
    { () } ifelse
} def
/cairo_flush_ascii85_file { cairo_ascii85_file status { cairo_ascii85_file flushfile } if } def
/cairo_image { image cairo_flush_ascii85_file } def
/cairo_imagemask { imagemask cairo_flush_ascii85_file } def
%%EndProlog
%%BeginSetup
%%EndSetup
%%Page: 1 1
%%BeginPageSetup
%%PageBoundingBox: 0 1 69 43
%%EndPageSetup
q 0 1 69 42 rectclip
1 0 0 -1 0 43 cm q
0 g
6 0 m 2.703 0 0 2.703 0 6 c 0 36 l 0 39.297 2.703 42 6 42 c 63 42 l 66.297
 42 69 39.297 69 36 c 69 6 l 69 2.703 66.297 0 63 0 c h
6 3 m 63 3 l 64.688 3 66 4.312 66 6 c 66 36 l 66 37.688 64.688 39 63 39
 c 6 39 l 4.312 39 3 37.688 3 36 c 3 6 l 3 4.312 4.312 3 6 3 c h
18.75 9.75 m 15.867 9.75 13.5 12.117 13.5 15 c 13.5 17.883 15.867 20.25
 18.75 20.25 c 21.633 20.25 24 17.883 24 15 c 24 12.117 21.633 9.75 18.75
 9.75 c h
36 11.25 m 35.172 11.25 34.5 11.922 34.5 12.75 c 34.5 13.578 35.172 14.25
 36 14.25 c 60 14.25 l 60.828 14.25 61.5 13.578 61.5 12.75 c 61.5 11.922
 60.828 11.25 60 11.25 c h
18.75 12.75 m 20.012 12.75 21 13.738 21 15 c 21 16.262 20.012 17.25 18.75
 17.25 c 17.488 17.25 16.5 16.262 16.5 15 c 16.5 13.738 17.488 12.75 18.75
 12.75 c h
36 19.5 m 35.172 19.5 34.5 20.172 34.5 21 c 34.5 21.828 35.172 22.5 36 
22.5 c 60 22.5 l 60.828 22.5 61.5 21.828 61.5 21 c 61.5 20.172 60.828 19.5
 60 19.5 c h
18.75 21.75 m 15.785 21.75 13.09 22.512 11.039 23.836 c 8.988 25.16 7.5
 27.148 7.5 29.484 c 7.5 30.75 l 7.5 31.535 8.215 32.25 9 32.25 c 28.5 32.25
 l 29.285 32.25 30 31.535 30 30.75 c 30 29.484 l 30 27.148 28.512 25.16 
26.461 23.836 c 24.41 22.512 21.715 21.75 18.75 21.75 c h
18.75 24.75 m 21.188 24.75 23.371 25.414 24.844 26.367 c 26.211 27.25 26.836
 28.266 26.93 29.25 c 10.57 29.25 l 10.664 28.266 11.289 27.25 12.656 26.367
 c 14.129 25.414 16.312 24.75 18.75 24.75 c h
36 27.75 m 35.172 27.75 34.5 28.422 34.5 29.25 c 34.5 30.078 35.172 30.75
 36 30.75 c 60 30.75 l 60.828 30.75 61.5 30.078 61.5 29.25 c 61.5 28.422
 60.828 27.75 60 27.75 c h
36 27.75 m f
Q Q
showpage
%%Trailer
end
%%EOF
