%!PS-Adobe-3.0 EPSF-3.0
%%Creator: cairo 1.15.12 (http://cairographics.org)
%%CreationDate: Sun Jul 22 01:43:34 2018
%%Pages: 1
%%DocumentData: Clean7Bit
%%LanguageLevel: 2
%%BoundingBox: 0 0 47 43
%%EndComments
%%BeginProlog
50 dict begin
/q { gsave } bind def
/Q { grestore } bind def
/cm { 6 array astore concat } bind def
/w { setlinewidth } bind def
/J { setlinecap } bind def
/j { setlinejoin } bind def
/M { setmiterlimit } bind def
/d { setdash } bind def
/m { moveto } bind def
/l { lineto } bind def
/c { curveto } bind def
/h { closepath } bind def
/re { exch dup neg 3 1 roll 5 3 roll moveto 0 rlineto
      0 exch rlineto 0 rlineto closepath } bind def
/S { stroke } bind def
/f { fill } bind def
/f* { eofill } bind def
/n { newpath } bind def
/W { clip } bind def
/W* { eoclip } bind def
/BT { } bind def
/ET { } bind def
/BDC { mark 3 1 roll /BDC pdfmark } bind def
/EMC { mark /EMC pdfmark } bind def
/cairo_store_point { /cairo_point_y exch def /cairo_point_x exch def } def
/Tj { show currentpoint cairo_store_point } bind def
/TJ {
  {
    dup
    type /stringtype eq
    { show } { -0.001 mul 0 cairo_font_matrix dtransform rmoveto } ifelse
  } forall
  currentpoint cairo_store_point
} bind def
/cairo_selectfont { cairo_font_matrix aload pop pop pop 0 0 6 array astore
    cairo_font exch selectfont cairo_point_x cairo_point_y moveto } bind def
/Tf { pop /cairo_font exch def /cairo_font_matrix where
      { pop cairo_selectfont } if } bind def
/Td { matrix translate cairo_font_matrix matrix concatmatrix dup
      /cairo_font_matrix exch def dup 4 get exch 5 get cairo_store_point
      /cairo_font where { pop cairo_selectfont } if } bind def
/Tm { 2 copy 8 2 roll 6 array astore /cairo_font_matrix exch def
      cairo_store_point /cairo_font where { pop cairo_selectfont } if } bind def
/g { setgray } bind def
/rg { setrgbcolor } bind def
/d1 { setcachedevice } bind def
/cairo_data_source {
  CairoDataIndex CairoData length lt
    { CairoData CairoDataIndex get /CairoDataIndex CairoDataIndex 1 add def }
    { () } ifelse
} def
/cairo_flush_ascii85_file { cairo_ascii85_file status { cairo_ascii85_file flushfile } if } def
/cairo_image { image cairo_flush_ascii85_file } def
/cairo_imagemask { imagemask cairo_flush_ascii85_file } def
%%EndProlog
%%BeginSetup
%%EndSetup
%%Page: 1 1
%%BeginPageSetup
%%PageBoundingBox: 0 0 47 43
%%EndPageSetup
q 0 0 47 43 rectclip
1 0 0 -1 0 43 cm q
0 g
24.684 41.914 m 9.711 30.062 l 4.715 30.062 l 2.16 30.062 0.082 28.25 0.082
 26.02 c 0 16.121 l 0 13.883 2.078 12.07 4.637 12.07 c 9.633 12.07 l 24.684
 0.254 l 25.68 -0.418 27.023 0.297 27.023 1.5 c 27.023 40.672 l 27.023 41.875
 25.68 42.59 24.684 41.914 c h
10.93 14.812 m 10.684 14.98 10.391 15.07 10.094 15.07 c 4.637 15.074 l 
3.672 15.074 3 15.621 3 16.113 c 3.082 26.012 l 3.082 26.516 3.754 27.062
 4.715 27.062 c 10.172 27.062 l 10.469 27.062 10.762 27.152 11.012 27.316
 c 24.023 37.852 l 24.023 4.316 l h
43.891 28.141 m 39.047 23.242 l 34.203 28.141 l 32.789 29.508 30.719 27.434
 32.082 26.02 c 36.938 21.105 l 32.035 16.145 l 30.621 14.73 32.742 12.609
 34.156 14.023 c 39.047 18.977 l 43.938 14.023 l 45.352 12.609 47.473 14.73
 46.059 16.145 c 41.156 21.105 l 46.012 26.02 l 46.613 26.602 46.625 27.566
 46.031 28.16 c 45.438 28.754 44.473 28.746 43.891 28.141 c h
43.891 28.141 m f
Q Q
showpage
%%Trailer
end
%%EOF
