%!PS-Adobe-3.0 EPSF-3.0
%%Creator: cairo 1.15.12 (http://cairographics.org)
%%CreationDate: Sun Aug  5 02:14:53 2018
%%Pages: 1
%%DocumentData: Clean7Bit
%%LanguageLevel: 2
%%BoundingBox: 0 0 56 57
%%EndComments
%%BeginProlog
50 dict begin
/q { gsave } bind def
/Q { grestore } bind def
/cm { 6 array astore concat } bind def
/w { setlinewidth } bind def
/J { setlinecap } bind def
/j { setlinejoin } bind def
/M { setmiterlimit } bind def
/d { setdash } bind def
/m { moveto } bind def
/l { lineto } bind def
/c { curveto } bind def
/h { closepath } bind def
/re { exch dup neg 3 1 roll 5 3 roll moveto 0 rlineto
      0 exch rlineto 0 rlineto closepath } bind def
/S { stroke } bind def
/f { fill } bind def
/f* { eofill } bind def
/n { newpath } bind def
/W { clip } bind def
/W* { eoclip } bind def
/BT { } bind def
/ET { } bind def
/BDC { mark 3 1 roll /BDC pdfmark } bind def
/EMC { mark /EMC pdfmark } bind def
/cairo_store_point { /cairo_point_y exch def /cairo_point_x exch def } def
/Tj { show currentpoint cairo_store_point } bind def
/TJ {
  {
    dup
    type /stringtype eq
    { show } { -0.001 mul 0 cairo_font_matrix dtransform rmoveto } ifelse
  } forall
  currentpoint cairo_store_point
} bind def
/cairo_selectfont { cairo_font_matrix aload pop pop pop 0 0 6 array astore
    cairo_font exch selectfont cairo_point_x cairo_point_y moveto } bind def
/Tf { pop /cairo_font exch def /cairo_font_matrix where
      { pop cairo_selectfont } if } bind def
/Td { matrix translate cairo_font_matrix matrix concatmatrix dup
      /cairo_font_matrix exch def dup 4 get exch 5 get cairo_store_point
      /cairo_font where { pop cairo_selectfont } if } bind def
/Tm { 2 copy 8 2 roll 6 array astore /cairo_font_matrix exch def
      cairo_store_point /cairo_font where { pop cairo_selectfont } if } bind def
/g { setgray } bind def
/rg { setrgbcolor } bind def
/d1 { setcachedevice } bind def
/cairo_data_source {
  CairoDataIndex CairoData length lt
    { CairoData CairoDataIndex get /CairoDataIndex CairoDataIndex 1 add def }
    { () } ifelse
} def
/cairo_flush_ascii85_file { cairo_ascii85_file status { cairo_ascii85_file flushfile } if } def
/cairo_image { image cairo_flush_ascii85_file } def
/cairo_imagemask { imagemask cairo_flush_ascii85_file } def
%%EndProlog
%%BeginSetup
%%EndSetup
%%Page: 1 1
%%BeginPageSetup
%%PageBoundingBox: 0 0 56 57
%%EndPageSetup
q 0 0 56 57 rectclip
1 0 0 -1 0 57 cm q
0 g
41.777 56.238 m 40.75 56.066 39.715 55.93 38.695 55.711 c 34.891 54.773
 31.246 53.277 27.875 51.281 c 22.566 48.332 17.758 44.566 13.625 40.121
 c 8.59 34.652 4.406 28.629 1.766 21.625 c 0.742 19.105 0.156 16.43 0.027
 13.711 c -0.172 11.023 0.773 8.379 2.637 6.43 c 4.211 4.816 5.734 3.145
 7.43 1.676 c 10.047 -0.574 12.895 -0.574 15.422 1.781 c 18.094 4.285 20.672
 6.918 23.156 9.594 c 25.047 11.633 25.047 14.781 23.156 16.816 c 21.836
 18.316 20.375 19.684 18.98 21.113 c 18.852 21.234 18.715 21.34 18.484 21.551
 c 22.211 28.293 27.773 33.84 34.527 37.547 c 37.855 34.18 l 38.676 33.215
 39.699 32.445 40.855 31.93 c 42.715 31.121 44.875 31.508 46.34 32.906 c
 49.133 35.566 51.859 38.301 54.512 41.109 c 56.379 43.105 56.438 46.188
 54.656 48.258 c 52.977 50.238 51.117 52.113 49.234 53.926 c 47.895 55.16
 46.188 55.922 44.375 56.094 c 44.246 56.125 44.117 56.164 43.992 56.207
 c h
42.609 52.855 m 44.48 52.957 46.301 52.238 47.598 50.891 c 48.859 49.57
 50.148 48.281 51.422 46.973 c 51.59 46.809 51.742 46.633 51.887 46.449 
c 52.805 45.527 52.773 44.031 51.82 43.148 c 50.793 42.039 49.707 40.988
 48.641 39.918 c 47.254 38.531 45.883 37.133 44.48 35.77 c 43.617 34.801
 42.117 34.758 41.199 35.68 c 40.992 35.852 40.805 36.047 40.609 36.242 
c 39.273 37.57 37.953 38.91 36.609 40.223 c 35.812 41.141 34.477 41.363 
33.422 40.758 c 32.605 40.344 31.797 39.934 31.008 39.469 c 27.539 37.348
 24.402 34.73 21.695 31.695 c 19.184 29.125 17.102 26.168 15.527 22.938 
c 14.734 21.184 14.906 20.328 16.277 18.992 c 17.652 17.656 19.121 16.238
 20.48 14.801 c 21.406 13.965 21.43 12.52 20.531 11.656 c 20.367 11.461 
20.195 11.281 20.02 11.102 c 13.438 4.488 l 12.027 3.098 10.773 3.086 9.363
 4.488 c 7.953 5.891 6.625 7.129 5.344 8.531 c 4.711 9.184 4.203 9.945 3.844
 10.781 c 3.281 12.57 3.258 14.488 3.777 16.293 c 4.398 19.094 5.383 21.805
 6.699 24.355 c 8.961 28.852 11.828 33.02 15.223 36.738 c 21.059 43.383 
28.449 48.484 36.73 51.586 c 38.617 52.301 40.598 52.719 42.609 52.824 c
 h
42.609 52.855 m f
Q Q
showpage
%%Trailer
end
%%EOF
