%!PS-Adobe-3.0 EPSF-3.0
%%Creator: cairo 1.15.12 (http://cairographics.org)
%%CreationDate: Sun Aug  5 02:25:39 2018
%%Pages: 1
%%DocumentData: Clean7Bit
%%LanguageLevel: 2
%%BoundingBox: 0 0 47 54
%%EndComments
%%BeginProlog
50 dict begin
/q { gsave } bind def
/Q { grestore } bind def
/cm { 6 array astore concat } bind def
/w { setlinewidth } bind def
/J { setlinecap } bind def
/j { setlinejoin } bind def
/M { setmiterlimit } bind def
/d { setdash } bind def
/m { moveto } bind def
/l { lineto } bind def
/c { curveto } bind def
/h { closepath } bind def
/re { exch dup neg 3 1 roll 5 3 roll moveto 0 rlineto
      0 exch rlineto 0 rlineto closepath } bind def
/S { stroke } bind def
/f { fill } bind def
/f* { eofill } bind def
/n { newpath } bind def
/W { clip } bind def
/W* { eoclip } bind def
/BT { } bind def
/ET { } bind def
/BDC { mark 3 1 roll /BDC pdfmark } bind def
/EMC { mark /EMC pdfmark } bind def
/cairo_store_point { /cairo_point_y exch def /cairo_point_x exch def } def
/Tj { show currentpoint cairo_store_point } bind def
/TJ {
  {
    dup
    type /stringtype eq
    { show } { -0.001 mul 0 cairo_font_matrix dtransform rmoveto } ifelse
  } forall
  currentpoint cairo_store_point
} bind def
/cairo_selectfont { cairo_font_matrix aload pop pop pop 0 0 6 array astore
    cairo_font exch selectfont cairo_point_x cairo_point_y moveto } bind def
/Tf { pop /cairo_font exch def /cairo_font_matrix where
      { pop cairo_selectfont } if } bind def
/Td { matrix translate cairo_font_matrix matrix concatmatrix dup
      /cairo_font_matrix exch def dup 4 get exch 5 get cairo_store_point
      /cairo_font where { pop cairo_selectfont } if } bind def
/Tm { 2 copy 8 2 roll 6 array astore /cairo_font_matrix exch def
      cairo_store_point /cairo_font where { pop cairo_selectfont } if } bind def
/g { setgray } bind def
/rg { setrgbcolor } bind def
/d1 { setcachedevice } bind def
/cairo_data_source {
  CairoDataIndex CairoData length lt
    { CairoData CairoDataIndex get /CairoDataIndex CairoDataIndex 1 add def }
    { () } ifelse
} def
/cairo_flush_ascii85_file { cairo_ascii85_file status { cairo_ascii85_file flushfile } if } def
/cairo_image { image cairo_flush_ascii85_file } def
/cairo_imagemask { imagemask cairo_flush_ascii85_file } def
%%EndProlog
%%BeginSetup
%%EndSetup
%%Page: 1 1
%%BeginPageSetup
%%PageBoundingBox: 0 0 47 54
%%EndPageSetup
q 0 0 47 54 rectclip
1 0 0 -1 0 54 cm q
0 g
7.547 0 m 3.395 0 0 3.41 0 7.57 c 0 8.398 0.672 9.07 1.5 9.07 c 12 9 l 
12 46.5 l 12 50.684 15.488 54 19.617 54 c 38.953 54 l 43.082 54 46.5 50.66
 46.5 46.5 c 46.5 45.672 45.828 45 45 45 c 41.25 45 l 41.25 7.57 l 41.25
 3.41 37.855 0 33.703 0 c h
7.547 3 m 7.992 3 l 8.105 3.039 8.223 3.062 8.344 3.07 c 9.977 3.363 11.234
 4.477 11.742 6 c 3.305 6.07 l 3.918 4.277 5.551 3 7.547 3 c h
13.5 3 m 33.703 3 l 36.227 3 38.25 5.023 38.25 7.57 c 38.25 45 l 25.5 45
 l 24.672 45 24 45.672 24 46.5 c 24 47.562 23.715 48.301 23.156 48.984 c
 22.598 49.668 21.715 50.312 20.414 50.812 c 20.289 50.859 20.172 50.922
 20.062 51 c 19.617 51 l 17.074 51 15 49.02 15 46.5 c 15 7.5 l 15 5.809 
14.438 4.258 13.5 3 c h
19.359 9.75 m 18.531 9.789 17.891 10.492 17.93 11.32 c 17.969 12.148 18.672
 12.789 19.5 12.75 c 33.75 12.75 l 34.586 12.762 35.27 12.086 35.27 11.25
 c 35.27 10.414 34.586 9.738 33.75 9.75 c 19.5 9.75 l 19.453 9.746 19.406
 9.746 19.359 9.75 c h
19.359 18.75 m 18.531 18.789 17.891 19.492 17.93 20.32 c 17.969 21.148 
18.672 21.789 19.5 21.75 c 33.75 21.75 l 34.586 21.762 35.27 21.086 35.27
 20.25 c 35.27 19.414 34.586 18.738 33.75 18.75 c 19.5 18.75 l 19.453 18.746
 19.406 18.746 19.359 18.75 c h
19.359 27.75 m 18.531 27.789 17.891 28.492 17.93 29.32 c 17.969 30.148 
18.672 30.789 19.5 30.75 c 33.75 30.75 l 34.586 30.762 35.27 30.086 35.27
 29.25 c 35.27 28.414 34.586 27.738 33.75 27.75 c 19.5 27.75 l 19.453 27.746
 19.406 27.746 19.359 27.75 c h
19.359 36.75 m 18.531 36.789 17.891 37.492 17.93 38.32 c 17.969 39.148 
18.672 39.789 19.5 39.75 c 33.75 39.75 l 34.586 39.762 35.27 39.086 35.27
 38.25 c 35.27 37.414 34.586 36.738 33.75 36.75 c 19.5 36.75 l 19.453 36.746
 19.406 36.746 19.359 36.75 c h
26.766 48 m 43.195 48 l 42.578 49.754 40.953 51 38.953 51 c 25.359 51 l
 25.398 50.953 25.461 50.93 25.5 50.883 c 26.172 50.059 26.543 49.062 26.766
 48 c h
26.766 48 m f
Q Q
showpage
%%Trailer
end
%%EOF
