%!PS-Adobe-3.0 EPSF-3.0
%%Creator: cairo 1.15.12 (http://cairographics.org)
%%CreationDate: Sun Jul 22 13:20:50 2018
%%Pages: 1
%%DocumentData: Clean7Bit
%%LanguageLevel: 2
%%BoundingBox: 0 0 32 32
%%EndComments
%%BeginProlog
50 dict begin
/q { gsave } bind def
/Q { grestore } bind def
/cm { 6 array astore concat } bind def
/w { setlinewidth } bind def
/J { setlinecap } bind def
/j { setlinejoin } bind def
/M { setmiterlimit } bind def
/d { setdash } bind def
/m { moveto } bind def
/l { lineto } bind def
/c { curveto } bind def
/h { closepath } bind def
/re { exch dup neg 3 1 roll 5 3 roll moveto 0 rlineto
      0 exch rlineto 0 rlineto closepath } bind def
/S { stroke } bind def
/f { fill } bind def
/f* { eofill } bind def
/n { newpath } bind def
/W { clip } bind def
/W* { eoclip } bind def
/BT { } bind def
/ET { } bind def
/BDC { mark 3 1 roll /BDC pdfmark } bind def
/EMC { mark /EMC pdfmark } bind def
/cairo_store_point { /cairo_point_y exch def /cairo_point_x exch def } def
/Tj { show currentpoint cairo_store_point } bind def
/TJ {
  {
    dup
    type /stringtype eq
    { show } { -0.001 mul 0 cairo_font_matrix dtransform rmoveto } ifelse
  } forall
  currentpoint cairo_store_point
} bind def
/cairo_selectfont { cairo_font_matrix aload pop pop pop 0 0 6 array astore
    cairo_font exch selectfont cairo_point_x cairo_point_y moveto } bind def
/Tf { pop /cairo_font exch def /cairo_font_matrix where
      { pop cairo_selectfont } if } bind def
/Td { matrix translate cairo_font_matrix matrix concatmatrix dup
      /cairo_font_matrix exch def dup 4 get exch 5 get cairo_store_point
      /cairo_font where { pop cairo_selectfont } if } bind def
/Tm { 2 copy 8 2 roll 6 array astore /cairo_font_matrix exch def
      cairo_store_point /cairo_font where { pop cairo_selectfont } if } bind def
/g { setgray } bind def
/rg { setrgbcolor } bind def
/d1 { setcachedevice } bind def
/cairo_data_source {
  CairoDataIndex CairoData length lt
    { CairoData CairoDataIndex get /CairoDataIndex CairoDataIndex 1 add def }
    { () } ifelse
} def
/cairo_flush_ascii85_file { cairo_ascii85_file status { cairo_ascii85_file flushfile } if } def
/cairo_image { image cairo_flush_ascii85_file } def
/cairo_imagemask { imagemask cairo_flush_ascii85_file } def
%%EndProlog
%%BeginSetup
%%EndSetup
%%Page: 1 1
%%BeginPageSetup
%%PageBoundingBox: 0 0 32 32
%%EndPageSetup
q 0 0 32 32 rectclip
1 0 0 -1 0 32 cm q
0 g
15.656 31.297 m 13.188 31.297 7.621 31.043 4.164 30.629 c 2.156 30.387 
1.082 29.246 0.57 26.812 c 0.434 26.184 0 23.508 0 15.648 c 0 10.121 0.191
 6.262 0.562 4.184 c 1.02 1.652 1.844 0.727 3.953 0.375 c 6.199 0 9.961 
0 15.656 0 c 21.352 0 25.117 0 27.359 0.375 c 29.469 0.727 30.293 1.652 
30.75 4.184 c 31.125 6.262 31.312 10.121 31.312 15.648 c 31.312 23.508 30.879
 26.184 30.746 26.812 c 30.23 29.246 29.156 30.387 27.148 30.629 c 23.691
 31.043 18.125 31.297 15.656 31.297 c h
15.656 1.5 m 10.035 1.5 6.324 1.5 4.203 1.855 c 2.992 2.059 2.438 2.238
 2.039 4.449 c 1.688 6.41 1.5 10.285 1.5 15.648 c 1.5 23.562 1.945 26.078
 2.035 26.504 c 2.465 28.539 3.18 29 4.344 29.141 c 7.746 29.547 13.227 
29.797 15.656 29.797 c 18.09 29.797 23.57 29.547 26.969 29.141 c 28.137 
29 28.848 28.539 29.277 26.504 c 29.367 26.078 29.812 23.562 29.812 15.648
 c 29.812 10.285 29.625 6.41 29.273 4.449 c 28.875 2.238 28.324 2.059 27.113
 1.855 c 24.992 1.5 21.277 1.5 15.656 1.5 c h
7.242 10.949 m 6.184 10.949 5.32 11.812 5.32 12.875 c 5.32 13.938 6.184
 14.797 7.242 14.797 c 8.305 14.797 9.168 13.938 9.168 12.875 c 9.168 11.812
 8.305 10.949 7.242 10.949 c h
24.094 10.949 m 23.031 10.949 22.172 11.812 22.172 12.875 c 22.172 13.938
 23.031 14.797 24.094 14.797 c 25.156 14.797 26.02 13.938 26.02 12.875 c
 26.02 11.812 25.156 10.949 24.094 10.949 c h
21.52 19.656 m 21.52 19.242 21.184 18.906 20.77 18.906 c 20.355 18.906 
20.02 19.242 20.02 19.656 c 20.02 21.922 18.062 23.766 15.656 23.766 c 13.25
 23.766 11.293 21.922 11.293 19.656 c 11.293 19.242 10.957 18.906 10.543
 18.906 c 10.129 18.906 9.793 19.242 9.793 19.656 c 9.793 22.75 12.426 25.266
 15.656 25.266 c 18.891 25.266 21.52 22.75 21.52 19.656 c h
21.52 19.656 m f
Q Q
showpage
%%Trailer
end
%%EOF
