%!PS-Adobe-3.0 EPSF-3.0
%%Creator: cairo 1.15.12 (http://cairographics.org)
%%CreationDate: Sun Jul 22 21:29:44 2018
%%Pages: 1
%%DocumentData: Clean7Bit
%%LanguageLevel: 2
%%BoundingBox: 0 0 72 34
%%EndComments
%%BeginProlog
50 dict begin
/q { gsave } bind def
/Q { grestore } bind def
/cm { 6 array astore concat } bind def
/w { setlinewidth } bind def
/J { setlinecap } bind def
/j { setlinejoin } bind def
/M { setmiterlimit } bind def
/d { setdash } bind def
/m { moveto } bind def
/l { lineto } bind def
/c { curveto } bind def
/h { closepath } bind def
/re { exch dup neg 3 1 roll 5 3 roll moveto 0 rlineto
      0 exch rlineto 0 rlineto closepath } bind def
/S { stroke } bind def
/f { fill } bind def
/f* { eofill } bind def
/n { newpath } bind def
/W { clip } bind def
/W* { eoclip } bind def
/BT { } bind def
/ET { } bind def
/BDC { mark 3 1 roll /BDC pdfmark } bind def
/EMC { mark /EMC pdfmark } bind def
/cairo_store_point { /cairo_point_y exch def /cairo_point_x exch def } def
/Tj { show currentpoint cairo_store_point } bind def
/TJ {
  {
    dup
    type /stringtype eq
    { show } { -0.001 mul 0 cairo_font_matrix dtransform rmoveto } ifelse
  } forall
  currentpoint cairo_store_point
} bind def
/cairo_selectfont { cairo_font_matrix aload pop pop pop 0 0 6 array astore
    cairo_font exch selectfont cairo_point_x cairo_point_y moveto } bind def
/Tf { pop /cairo_font exch def /cairo_font_matrix where
      { pop cairo_selectfont } if } bind def
/Td { matrix translate cairo_font_matrix matrix concatmatrix dup
      /cairo_font_matrix exch def dup 4 get exch 5 get cairo_store_point
      /cairo_font where { pop cairo_selectfont } if } bind def
/Tm { 2 copy 8 2 roll 6 array astore /cairo_font_matrix exch def
      cairo_store_point /cairo_font where { pop cairo_selectfont } if } bind def
/g { setgray } bind def
/rg { setrgbcolor } bind def
/d1 { setcachedevice } bind def
/cairo_data_source {
  CairoDataIndex CairoData length lt
    { CairoData CairoDataIndex get /CairoDataIndex CairoDataIndex 1 add def }
    { () } ifelse
} def
/cairo_flush_ascii85_file { cairo_ascii85_file status { cairo_ascii85_file flushfile } if } def
/cairo_image { image cairo_flush_ascii85_file } def
/cairo_imagemask { imagemask cairo_flush_ascii85_file } def
%%EndProlog
%%BeginSetup
%%EndSetup
%%Page: 1 1
%%BeginPageSetup
%%PageBoundingBox: 0 0 72 34
%%EndPageSetup
q 0 0 72 34 rectclip
1 0 0 -1 0 34 cm q
0.709804 0.545098 0.690196 rg
60.75 11.484 m 59.102 11.484 57.523 11.859 56.176 12.457 c 55.574 11.406
 54.977 10.281 54.301 9.309 c 53.25 7.508 52.199 6.156 51.148 3.906 c 54.75
 3.906 l 55.648 3.906 56.699 4.207 56.926 5.031 c 57.074 5.559 56.773 6.234
 56.176 6.457 c 54.824 6.984 55.426 9.156 56.773 8.633 c 58.426 8.031 59.551
 6.309 59.102 4.508 c 58.574 2.484 56.551 1.656 54.75 1.656 c 48.824 1.656
 l 48.824 1.809 l 48.074 1.883 47.625 2.633 48.074 3.457 c 48.523 4.133 
48.977 4.809 49.352 5.559 c 37.875 7.957 l 37.273 6.457 36.75 4.957 36.227
 3.383 c 37.949 3.008 l 38.699 2.859 39.227 2.184 39.148 1.656 c 39.074 
0.984 38.477 0.531 37.574 0.457 c 32.176 0.008 l 31.352 -0.066 30.676 0.383
 30.375 1.059 c 30.375 1.133 29.926 2.184 29.852 2.559 c 29.699 3.008 29.852
 3.457 30.074 3.832 c 30.375 4.207 30.824 4.359 31.352 4.359 c 31.727 4.359
 l 33.977 3.906 l 34.574 5.406 35.102 6.906 35.625 8.406 c 23.102 10.957
 l 23.699 11.934 l 23.477 11.633 l 22.5 9.531 21 5.895 20.023 3.797 c 22.051
 3.422 l 22.801 3.27 23.324 2.672 23.25 2.07 c 23.176 1.469 22.574 1.02 
21.676 0.945 c 16.273 0.422 l 15.449 0.344 14.699 0.719 14.477 1.395 c 14.398
 1.469 14.023 2.445 13.949 2.82 c 13.801 3.27 13.875 3.645 14.176 4.02 c
 14.398 4.395 14.926 4.547 15.523 4.547 c 15.898 4.547 l 17.773 4.172 l 
18.676 6.195 20.25 9.906 21.227 11.934 c 18.375 14.332 l 16.426 12.531 13.801
 11.406 10.949 11.406 c 4.949 11.406 0 16.281 0 22.359 c 0 28.434 4.875 
33.309 10.949 33.309 c 16.199 33.309 20.625 29.559 21.676 24.609 c 24 24.832
 l 24.375 26.559 25.949 27.832 27.824 27.832 c 28.727 27.832 29.477 27.531
 30.148 27.082 c 30.301 27.234 30.449 27.309 30.602 27.457 c 30.375 27.684
 30.227 27.906 30 28.133 c 29.551 28.582 29.551 29.258 30 29.707 c 30.375
 30.082 31.199 30.156 31.574 29.707 c 32.023 29.184 32.477 28.656 33 28.133
 c 33.375 27.684 33.449 27.008 33 26.559 c 32.773 26.332 l 31.875 25.656
 l 39.449 25.656 l 40.051 27.008 41.398 27.906 42.977 27.906 c 43.801 27.906
 44.625 27.609 45.301 27.156 c 45.449 27.309 45.602 27.383 45.75 27.531 
c 45.523 27.758 45.375 27.984 45.148 28.207 c 44.699 28.656 44.699 29.332
 45.148 29.781 c 45.523 30.156 46.352 30.234 46.727 29.781 c 47.176 29.258
 47.625 28.734 48.148 28.207 c 48.523 27.758 48.602 27.082 48.148 26.633
 c 47.926 26.406 l 47.477 26.109 47.102 25.734 46.648 25.434 c 46.801 24.984
 46.875 24.531 46.875 24.008 c 46.875 23.258 46.648 22.582 46.352 22.059
 c 47.102 20.934 47.926 19.809 48.676 18.684 c 50.25 16.434 51.75 14.184
 53.324 11.934 c 53.699 12.531 54 13.133 54.375 13.734 c 51.676 15.758 49.949
 18.906 49.949 22.508 c 49.949 28.508 54.824 33.457 60.898 33.457 c 66.898
 33.457 71.852 28.582 71.852 22.508 c 71.699 16.359 66.824 11.484 60.75 
11.484 c h
19.574 22.133 m 13.273 21.457 l 18.074 17.484 l 18.977 18.832 19.5 20.406
 19.574 22.133 c h
10.875 31.059 m 6.074 31.059 2.176 27.156 2.176 22.359 c 2.176 17.559 6.074
 13.656 10.875 13.656 c 13.051 13.656 15 14.484 16.574 15.758 c 10.801 20.559
 l 10.574 20.781 l 10.199 21.309 10.125 21.984 10.352 22.508 c 10.574 23.109
 11.176 23.484 11.773 23.559 c 19.199 24.309 l 18.375 28.207 14.926 31.059
 10.875 31.059 c h
19.801 16.059 m 22.125 14.109 l 22.199 14.332 22.352 14.559 22.426 14.781
 c 23.398 16.883 24.301 18.906 25.273 20.934 c 24.75 21.383 24.301 21.906
 24.074 22.656 c 21.824 22.434 l 21.824 22.359 l 21.824 20.031 21.074 17.859
 19.801 16.059 c h
26.023 24.008 m 26.023 23.707 26.102 23.406 26.25 23.184 c 26.324 23.109
 26.398 23.031 26.398 22.957 c 26.699 22.582 27.148 22.359 27.676 22.359
 c 27.977 22.359 28.273 22.434 28.5 22.582 c 28.801 22.809 29.102 23.109
 29.176 23.484 c 29.25 23.633 29.25 23.781 29.25 23.934 c 29.102 23.859 
29.023 23.707 28.875 23.633 c 28.5 23.258 l 28.352 23.109 28.125 23.109 
27.898 23.109 c 27.75 23.109 l 27.449 23.184 27.148 23.406 27 23.633 c 26.852
 23.859 26.852 24.082 26.852 24.309 c 26.926 24.609 27.074 24.906 27.375
 25.133 c 27.449 25.133 27.449 25.207 27.523 25.207 c 27.75 25.434 l 27.824
 25.508 27.898 25.508 27.898 25.582 c 27.602 25.582 l 27.148 25.582 26.699
 25.359 26.398 25.059 c 26.25 24.832 26.023 24.457 26.023 24.008 c h
31.574 23.406 m 31.273 21.531 29.699 20.031 27.676 20.031 c 27.301 20.031
 l 26.398 18.008 25.5 16.059 24.602 14.031 c 24.449 13.656 24.301 13.359
 24.148 13.059 c 36.449 10.508 l 40.051 20.184 l 40.125 20.406 40.199 20.633
 40.273 20.934 c 39.602 21.531 39.074 22.359 38.926 23.332 c 31.574 23.332
 l h
42.824 25.656 m 41.926 25.656 41.176 24.906 41.176 24.008 c 41.176 23.859
 41.176 23.707 41.25 23.559 c 41.25 23.484 41.25 23.484 41.324 23.406 c 
41.551 22.734 42.148 22.281 42.898 22.281 c 43.273 22.281 l 43.949 22.434
 44.477 23.031 44.551 23.781 c 44.25 23.559 44.023 23.332 43.727 23.184 
c 43.648 23.184 43.648 23.109 43.574 23.109 c 43.352 22.957 43.051 23.031
 42.75 23.109 c 42.602 23.184 42.449 23.258 42.375 23.406 c 42.301 23.484
 42.301 23.559 42.227 23.633 c 41.926 24.156 42.074 24.684 42.523 25.059
 c 42.523 25.059 42.602 25.133 42.676 25.133 c 42.898 25.359 l 43.051 25.434
 43.125 25.508 43.273 25.656 c h
48.074 15.383 m 47.023 16.883 45.977 18.457 44.926 19.957 c 44.852 20.109
 44.699 20.332 44.551 20.484 c 44.023 20.258 43.426 20.109 42.898 20.109
 c 42.449 20.109 l 42.375 19.883 42.301 19.582 42.148 19.359 c 41.023 16.281
 39.898 13.207 38.699 10.059 c 50.699 7.582 l 51.148 8.332 51.523 9.008 
51.977 9.758 c 50.625 11.633 49.352 13.508 48.074 15.383 c h
60.75 31.059 m 55.949 31.059 52.051 27.156 52.051 22.359 c 52.051 19.582
 53.324 17.109 55.352 15.531 c 56.852 18.008 58.273 20.484 59.773 22.957
 c 60.523 24.234 62.477 23.109 61.727 21.832 c 60.227 19.359 58.801 16.883
 57.301 14.406 c 58.352 13.957 59.477 13.734 60.75 13.734 c 65.551 13.734
 69.449 17.633 69.449 22.434 c 69.449 27.156 65.551 31.059 60.75 31.059 
c h
60.75 31.059 m f
Q Q
showpage
%%Trailer
end
%%EOF
