%!PS-Adobe-3.0 EPSF-3.0
%%Creator: cairo 1.15.12 (http://cairographics.org)
%%CreationDate: Sun Jul 22 02:34:35 2018
%%Pages: 1
%%DocumentData: Clean7Bit
%%LanguageLevel: 2
%%BoundingBox: 0 0 45 45
%%EndComments
%%BeginProlog
50 dict begin
/q { gsave } bind def
/Q { grestore } bind def
/cm { 6 array astore concat } bind def
/w { setlinewidth } bind def
/J { setlinecap } bind def
/j { setlinejoin } bind def
/M { setmiterlimit } bind def
/d { setdash } bind def
/m { moveto } bind def
/l { lineto } bind def
/c { curveto } bind def
/h { closepath } bind def
/re { exch dup neg 3 1 roll 5 3 roll moveto 0 rlineto
      0 exch rlineto 0 rlineto closepath } bind def
/S { stroke } bind def
/f { fill } bind def
/f* { eofill } bind def
/n { newpath } bind def
/W { clip } bind def
/W* { eoclip } bind def
/BT { } bind def
/ET { } bind def
/BDC { mark 3 1 roll /BDC pdfmark } bind def
/EMC { mark /EMC pdfmark } bind def
/cairo_store_point { /cairo_point_y exch def /cairo_point_x exch def } def
/Tj { show currentpoint cairo_store_point } bind def
/TJ {
  {
    dup
    type /stringtype eq
    { show } { -0.001 mul 0 cairo_font_matrix dtransform rmoveto } ifelse
  } forall
  currentpoint cairo_store_point
} bind def
/cairo_selectfont { cairo_font_matrix aload pop pop pop 0 0 6 array astore
    cairo_font exch selectfont cairo_point_x cairo_point_y moveto } bind def
/Tf { pop /cairo_font exch def /cairo_font_matrix where
      { pop cairo_selectfont } if } bind def
/Td { matrix translate cairo_font_matrix matrix concatmatrix dup
      /cairo_font_matrix exch def dup 4 get exch 5 get cairo_store_point
      /cairo_font where { pop cairo_selectfont } if } bind def
/Tm { 2 copy 8 2 roll 6 array astore /cairo_font_matrix exch def
      cairo_store_point /cairo_font where { pop cairo_selectfont } if } bind def
/g { setgray } bind def
/rg { setrgbcolor } bind def
/d1 { setcachedevice } bind def
/cairo_data_source {
  CairoDataIndex CairoData length lt
    { CairoData CairoDataIndex get /CairoDataIndex CairoDataIndex 1 add def }
    { () } ifelse
} def
/cairo_flush_ascii85_file { cairo_ascii85_file status { cairo_ascii85_file flushfile } if } def
/cairo_image { image cairo_flush_ascii85_file } def
/cairo_imagemask { imagemask cairo_flush_ascii85_file } def
%%EndProlog
%%BeginSetup
%%EndSetup
%%Page: 1 1
%%BeginPageSetup
%%PageBoundingBox: 0 0 45 45
%%EndPageSetup
q 0 0 45 45 rectclip
1 0 0 -1 0 45 cm q
0 g
22.5 0 m 10.074 0 0 10.074 0 22.5 c 0 34.926 10.074 45 22.5 45 c 34.926
 45 45 34.926 45 22.5 c 45 10.074 34.926 0 22.5 0 c h
21.75 1.656 m 21.75 43.344 l 18.75 42.129 15.75 33.914 15.75 22.5 c 15.75
 11.086 18.75 2.871 21.75 1.656 c h
23.25 43.344 m 23.25 1.656 l 26.25 2.871 29.25 11.086 29.25 22.5 c 29.25
 33.914 26.25 42.129 23.25 43.344 c h
14.25 22.5 m 14.25 30.621 15.914 38.949 18.848 42.797 c 12.75 40.418 8.25
 32.25 8.25 22.5 c 8.25 12.75 12.75 4.582 18.848 2.203 c 15.914 6.051 14.25
 14.379 14.25 22.5 c h
30.75 22.5 m 30.75 14.379 29.086 6.051 26.152 2.203 c 32.25 4.582 36.75
 12.75 36.75 22.5 c 36.75 32.25 32.25 40.418 26.152 42.797 c 29.086 38.949
 30.75 30.621 30.75 22.5 c h
1.5 22.5 m 1.5 13.953 6.684 6.258 14.602 3.047 c 9.906 6.953 6.75 14.203
 6.75 22.5 c 6.75 30.797 9.906 38.047 14.602 41.953 c 6.684 38.742 1.5 31.047
 1.5 22.5 c h
30.398 41.953 m 35.094 38.047 38.25 30.797 38.25 22.5 c 38.25 14.203 35.094
 6.953 30.398 3.047 c 38.312 6.262 43.492 13.953 43.492 22.5 c 43.492 31.047
 38.312 38.738 30.398 41.953 c h
30.398 41.953 m f
Q Q
showpage
%%Trailer
end
%%EOF
