%!PS-Adobe-3.0 EPSF-3.0
%%Creator: cairo 1.15.12 (http://cairographics.org)
%%CreationDate: Sun Jul 22 02:45:20 2018
%%Pages: 1
%%DocumentData: Clean7Bit
%%LanguageLevel: 2
%%BoundingBox: 0 0 186 193
%%EndComments
%%BeginProlog
50 dict begin
/q { gsave } bind def
/Q { grestore } bind def
/cm { 6 array astore concat } bind def
/w { setlinewidth } bind def
/J { setlinecap } bind def
/j { setlinejoin } bind def
/M { setmiterlimit } bind def
/d { setdash } bind def
/m { moveto } bind def
/l { lineto } bind def
/c { curveto } bind def
/h { closepath } bind def
/re { exch dup neg 3 1 roll 5 3 roll moveto 0 rlineto
      0 exch rlineto 0 rlineto closepath } bind def
/S { stroke } bind def
/f { fill } bind def
/f* { eofill } bind def
/n { newpath } bind def
/W { clip } bind def
/W* { eoclip } bind def
/BT { } bind def
/ET { } bind def
/BDC { mark 3 1 roll /BDC pdfmark } bind def
/EMC { mark /EMC pdfmark } bind def
/cairo_store_point { /cairo_point_y exch def /cairo_point_x exch def } def
/Tj { show currentpoint cairo_store_point } bind def
/TJ {
  {
    dup
    type /stringtype eq
    { show } { -0.001 mul 0 cairo_font_matrix dtransform rmoveto } ifelse
  } forall
  currentpoint cairo_store_point
} bind def
/cairo_selectfont { cairo_font_matrix aload pop pop pop 0 0 6 array astore
    cairo_font exch selectfont cairo_point_x cairo_point_y moveto } bind def
/Tf { pop /cairo_font exch def /cairo_font_matrix where
      { pop cairo_selectfont } if } bind def
/Td { matrix translate cairo_font_matrix matrix concatmatrix dup
      /cairo_font_matrix exch def dup 4 get exch 5 get cairo_store_point
      /cairo_font where { pop cairo_selectfont } if } bind def
/Tm { 2 copy 8 2 roll 6 array astore /cairo_font_matrix exch def
      cairo_store_point /cairo_font where { pop cairo_selectfont } if } bind def
/g { setgray } bind def
/rg { setrgbcolor } bind def
/d1 { setcachedevice } bind def
/cairo_data_source {
  CairoDataIndex CairoData length lt
    { CairoData CairoDataIndex get /CairoDataIndex CairoDataIndex 1 add def }
    { () } ifelse
} def
/cairo_flush_ascii85_file { cairo_ascii85_file status { cairo_ascii85_file flushfile } if } def
/cairo_image { image cairo_flush_ascii85_file } def
/cairo_imagemask { imagemask cairo_flush_ascii85_file } def
%%EndProlog
%%BeginSetup
%%EndSetup
%%Page: 1 1
%%BeginPageSetup
%%PageBoundingBox: 0 0 186 193
%%EndPageSetup
q 0 0 186 193 rectclip
1 0 0 -1 0 193 cm q
0 g
120.977 36.648 m 120.555 36.52 119.957 36.262 119.648 36.078 c 117.977 
35.078 116.793 32.652 116.383 29.375 c 116.18 27.766 116.184 23.805 116.391
 22.152 c 116.855 18.43 118.27 15.996 120.488 15.094 c 121.18 14.816 121.5
 14.766 122.695 14.766 c 123.922 14.766 124.191 14.809 124.918 15.117 c 
126.957 15.98 128.293 18.121 128.887 21.484 c 129.16 23.023 129.16 28.555
 128.887 30.098 c 128.293 33.449 126.953 35.605 124.934 36.457 c 123.855
 36.91 122.105 36.996 120.973 36.648 c h
120.977 36.648 m f*
1.3202 w
0 J
0 j
[] 0.0 d
4 M q 1 0 0 1 0 0 cm
120.977 36.648 m 120.555 36.52 119.957 36.262 119.648 36.078 c 117.977 
35.078 116.793 32.652 116.383 29.375 c 116.18 27.766 116.184 23.805 116.391
 22.152 c 116.855 18.43 118.27 15.996 120.488 15.094 c 121.18 14.816 121.5
 14.766 122.695 14.766 c 123.922 14.766 124.191 14.809 124.918 15.117 c 
126.957 15.98 128.293 18.121 128.887 21.484 c 129.16 23.023 129.16 28.555
 128.887 30.098 c 128.293 33.449 126.953 35.605 124.934 36.457 c 123.855
 36.91 122.105 36.996 120.973 36.648 c h
120.977 36.648 m S Q
6.388484 w
q 1 0 0 1 0 0 cm
182.391 17.633 m 182.391 17.633 178 7.734 141.254 3.113 c 104.504 -1.504
 81.523 15.195 81.523 15.195 c 81.523 15.195 71.387 20.559 63.16 31.336 
c 54.934 42.117 49.828 72.074 52.949 90.223 c 55.996 107.957 57.883 107.602
 58.707 117.062 c 59.531 126.52 50.48 134 40.605 139.938 c 30.734 145.879
 0.84 149.176 0.84 149.176 c 0.84 149.176 79.793 150.07 96.277 148.516 c
 122.391 146.059 123.031 144.57 141.254 136.859 c 144.828 135.344 155.238
 129.379 160.176 118.82 c 165.113 108.262 166.758 91.324 166.211 86.043 
c 166.961 64.715 143.418 39.32 165.66 25.551 c 170.742 22.359 182.391 17.633
 182.391 17.633 c h
182.391 17.633 m S Q
q 1 0 0 1 0 0 cm
73.277 188.84 m 73.277 188.84 89.285 190.961 105.293 189.805 c S Q
q 1 0 0 1 0 0 cm
121.117 143.805 m 121.117 143.805 132.207 166.176 133.363 176.977 c S Q
q 1 0 0 1 0 0 cm
135.387 173.656 m 135.387 173.656 156.984 168.641 163.156 164.398 c S Q
q 1 0 0 1 0 0 cm
182.391 17.633 m 182.391 17.633 178 7.734 141.254 3.113 c 104.504 -1.504
 81.523 15.195 81.523 15.195 c 81.523 15.195 71.387 20.559 63.16 31.336 
c 54.934 42.117 49.828 72.074 52.949 90.223 c 55.996 107.957 57.883 107.602
 58.707 117.062 c 59.531 126.52 50.48 134 40.605 139.938 c 30.734 145.879
 0.84 149.176 0.84 149.176 c 0.84 149.176 79.793 150.07 96.277 148.516 c
 122.391 146.059 123.031 144.57 141.254 136.859 c 144.828 135.344 155.238
 129.379 160.176 118.82 c 165.113 108.262 166.758 91.324 166.211 86.043 
c 166.961 64.715 143.418 39.32 165.66 25.551 c 170.742 22.359 182.391 17.633
 182.391 17.633 c h
182.391 17.633 m S Q
6.945902 w
q 1 0 0 1 0 0 cm
86.812 137.156 m 79.129 182.387 70.855 189.531 70.855 189.531 c S Q
Q Q
showpage
%%Trailer
end
%%EOF
